R markdown
…
The average price of the house in Mtatsminda District was $697572.7. The average house price of Vake District was $435662.7.The average house price of Chugureti District was 283147.The average house price of Krtsanisi District was $278110.7. The average house price of Saburtalo District was 275428. The average house price of Other District was $248172.4. The average house price of Dibude District was $213242.4. The average house price of Isani District was $199591.4. The average house price of Nadzaladevi District was $166551.7 and the average house price of Gidani District was $140905.1.

countdf=df %>% 
  select(apartment_type, city_area, price) %>% 
  arrange(city_area) %>% 
  group_by(city_area, apartment_type) %>% 
  summarize(Count = n())

## `summarise()` has grouped output by 'city_area'. You can override using the `.groups` argument.

countdf

## # A tibble: 32 x 3
## # Groups:   city_area [11]
##    city_area          apartment_type Count
##    <fct>              <fct>          <int>
##  1 Chugureti District new              226
##  2 Chugureti District old              582
##  3 Didube District    construction      92
##  4 Didube District    new             1060
##  5 Didube District    old              746
##  6 Gldani District    construction      67
##  7 Gldani District    new              776
##  8 Gldani District    old              465
##  9 Isani District     construction      71
## 10 Isani District     new             1179
## #  with 22 more rows
…
